Parcela,CambioAB,CambioDensidad,CambioVol,CambioBiomasa
370,1.39243,1400,1618.80745,4.47200
460,1.14036,300,507.49366,3.40183
554,5.98638,2200,2457.67942,15.97715
648,0.00000,0,10.87995,0.00000
1027,0.00000,0,84.71960,0.00000
1104,5.26594,2350,2627.88340,15.53912
1181,0.00000,0,21.12430,0.00000
1210,0.00000,0,65.66427,0.00000
1473,2.82272,1300,1634.09853,7.95899
1573,14.94661,-1050,-1050.00000,-153.59281
1664,3.19594,2100,2266.40474,8.08658
1745,0.00000,0,36.54563,0.00000
1747,1.30986,700,893.68563,2.94986
1829,0.00000,0,-34.78768,0.00000
1932,4.39371,3300,3478.07025,15.41809
2005,0.00000,0,234.34310,0.00000
2102,3.37933,1500,1557.52751,7.69523
2171,2.06984,1550,2014.43487,5.62440
2181,5.97005,2850,2911.84210,10.93107
2275,1.24839,1150,1213.80505,2.77368
2294,0.00000,0,38.51681,0.00000
2355,1.91853,1050,1444.23678,5.46034
2398,3.98531,1800,2129.32287,11.27665
2571,0.00000,0,103.79775,0.00000
2655,2.14732,800,900.11022,4.64170
2801,0.86669,450,443.36549,2.59209
2845,5.38712,3500,3697.93645,10.85969
2898,1.56785,1150,1505.72551,4.18299
2913,1.67196,850,1102.65460,2.42845
2916,3.16614,1500,1572.15100,7.11424
2937,1.93165,650,1236.28122,4.43593
2984,0.00000,0,-11.29340,0.00000
2986,6.69544,2550,2961.22009,12.76219
3085,0.85671,1100,1100.00000,2.54249
3110,0.00000,0,26.98112,0.00000
3113,0.00000,0,48.17550,0.00000
3124,0.00000,0,92.93135,0.00000
3125,0.00000,0,-3.96767,0.00000
3161,0.00000,0,53.14323,0.00000
3201,0.00000,0,67.18749,0.00000
3348,0.74275,650,627.34456,1.85001
3359,2.14504,1050,1311.97532,3.83754
3389,2.64420,1350,1703.99651,6.21010
3430,0.00000,0,75.51912,0.00000
3530,0.00000,0,17.28095,0.00000
3657,4.62533,2500,2702.58237,11.99716
3755,0.22663,150,309.52996,0.57177
3797,0.00000,0,294.98267,0.00000
3805,2.96115,1450,1715.83850,8.89751
3815,2.18203,1350,1341.08764,5.70662
3937,7.47059,2250,2381.84727,15.27946
3971,1.85142,800,1081.18158,5.37041
3989,8.05006,2550,2995.78669,15.68641
4007,2.14905,1450,1815.64745,6.08307
4059,0.00000,0,-40.36003,0.00000
4070,0.00000,0,63.51226,0.00000
4248,3.42096,2300,2121.39484,8.73608
4298,3.15691,2800,2944.36915,9.55005
4467,2.59861,2100,2273.68767,7.50133
4482,0.00000,0,-49.25340,0.00000
4505,0.00000,0,-20.84946,0.00000
4507,1.99036,2450,2666.59626,6.27671
4517,4.61598,3050,3214.11984,11.32222
4529,0.00000,0,5.24983,0.00000
4536,1.65075,1000,1084.46460,4.23603
4637,0.00000,0,-40.89380,0.00000
4651,0.39828,650,697.29575,1.13159
4733,0.00000,1350,1111.17658,0.00000
4881,12.23619,3700,3868.25525,28.47623
4910,1.34401,1150,1197.72448,3.53485
4970,3.67810,1750,2150.80627,9.70519
5048,0.00000,0,67.26006,0.00000
5079,6.23535,3500,4097.30669,14.41337
5144,0.00000,0,480.18166,0.00000
5162,1.34401,1150,582.84896,3.53485
5191,1.66897,950,1166.19633,3.64197
5199,4.19536,2050,2272.37311,11.84040
5236,4.48168,3150,3024.13465,12.64889
5335,3.29918,2000,2363.27830,7.46176
5349,5.42498,3300,3715.33296,16.09769
5413,1.01709,400,846.37821,1.80427
5633,0.00000,0,61.14288,0.00000
5652,6.08220,3550,4123.85868,16.96824
5657,2.30699,1500,1729.98245,6.41922
5684,6.18108,2900,3147.87140,20.18214
5692,0.00000,0,339.72015,0.00000
5717,4.21072,1650,1917.59342,9.86184
5796,0.00000,0,-81.52987,0.00000
5870,0.00000,0,107.36481,0.00000
5885,3.09455,1650,1910.93553,8.60380
5885,0.00000,0,-107.16691,0.00000
5977,0.00000,0,59.30356,0.00000
5999,1.24423,750,892.82390,3.13274
6073,4.24410,2600,2780.73937,13.12691
6089,2.32466,1000,1326.20673,5.30701
6110,4.91196,3050,3272.84710,13.78615
6177,2.81522,1650,2100.92439,6.69157
6232,0.00000,0,5.22871,0.00000
6246,0.89429,900,1053.78316,2.36933
6253,0.52033,100,183.71147,1.84798
6257,3.89023,2250,2493.37253,12.17425
6293,5.73168,3050,3045.77854,16.81899
6325,1.55580,750,759.72209,3.99690
6377,1.80830,800,1115.50820,4.46349
6465,4.50273,2050,2519.08906,10.97874
6630,2.19487,1150,1403.23206,6.46971
6704,0.00000,0,0.00000,0.00000
6706,0.00000,0,32.89798,0.00000
6891,2.78596,1300,1650.32892,7.61777
6911,0.00000,0,-95.78146,0.00000
6913,3.32035,2150,2327.76469,8.90847
7279,2.46332,1150,1348.85725,6.15325
7336,0.00000,0,11.46861,0.00000
7443,0.00000,0,16.17539,0.00000
7611,1.71009,1100,1145.67846,3.73375
7632,2.58475,1600,1917.31926,8.39555
7802,4.27952,1500,1726.05757,14.16752
7818,,,,
7984,1.98407,1250,1287.38984,5.25146
8358,0.00000,0,370.28031,0.00000
8442,6.21207,2600,2800.40030,16.44517
8521,0.00000,0,344.55491,0.00000
8526,3.93693,1700,1993.07258,9.57665
8528,4.87473,2250,2677.49926,13.48533
9068,5.86893,1650,1919.39104,11.45243
9078,4.35751,2500,2591.07132,13.43239
9159,0.00000,0,-12.50770,0.00000
9518,0.00000,0,140.12553,0.00000
9534,7.38907,4250,4460.30992,19.10785
9619,4.48753,1900,2183.09879,9.44441
9709,0.00000,0,33.79694,0.00000
9966,0.74825,250,431.60054,1.15201
10237,1.67851,1050,1304.96424,4.12013
10973,0.00000,0,68.46226,0.00000
11229,2.80509,1150,1192.70070,6.09585
11326,2.00673,1950,2036.54316,6.27395
11867,3.75526,1650,1848.96902,11.80415
12500,0.00000,0,76.96832,0.00000
13870,3.13700,1000,979.77588,5.18936
14238,3.33900,1700,2026.30476,9.21610
14239,1.89293,1500,1411.49864,5.17117
14321,0.00000,0,96.17801,0.00000
14410,3.49345,1950,2127.22681,11.46121
14504,6.17649,2000,2152.50013,19.71328
14585,3.43985,1900,2153.40929,10.43092
14696,0.00000,0,108.23610,0.00000
14699,0.00000,0,181.26582,0.00000
14874,4.75158,1800,2134.26748,11.57220
14947,2.66222,1300,1624.55729,8.63516
14950,0.00000,0,19.46742,0.00000
14968,3.19127,1550,1866.90546,8.58603
15072,0.00000,0,73.99466,0.00000
15128,1.38093,700,755.05859,2.71604
15233,0.00000,0,13.15761,0.00000
15254,0.00000,0,246.37403,0.00000
15272,4.96941,2500,2755.54063,14.62068
15407,4.67760,1250,1569.45704,12.92093
15452,1.59004,1200,1246.79182,4.90951
15528,4.67803,3500,3714.59320,11.75859
15538,2.93099,1600,991.74400,7.33030
15609,2.50970,1200,1421.77015,6.95089
15674,2.84027,1800,1913.55858,8.19476
15717,1.51641,1750,1780.56617,4.49620
15721,6.30773,4150,4507.73255,16.17748
15803,4.27229,4200,4396.77386,11.67616
15808,8.20623,5250,5731.92632,21.53086
15946,4.08678,1450,1532.46411,12.50832
15992,7.58695,2500,2681.06531,24.45653
16048,6.48641,2400,2709.72677,14.79226
16124,3.98016,2750,2595.50666,7.12024
16156,0.00000,0,0.00000,0.00000
16220,5.32763,1800,2214.88871,12.73494
16225,4.67634,2550,2969.89824,13.40349
16231,3.11701,2500,2654.18281,7.10969
16248,3.05917,1850,2056.45302,7.14327
16264,0.00000,0,515.41485,0.00000
16535,1.64366,950,1039.30489,3.81665
16657,3.26015,2100,2145.43365,6.97179
16671,0.00000,0,-15.73639,0.00000
16707,5.76400,3750,3615.89480,16.73774
16780,4.02548,2050,2365.25107,10.42911
16786,4.35617,3750,4011.26080,13.47392
16806,1.68617,1150,1171.05546,4.82347
16855,3.87099,1800,2085.01931,6.20579
16963,,,,
17039,,,,
17052,,,,
17132,,,,
17149,,,,
17163,,,,
17196,,,,
17227,,,,
17233,,,,
17252,,,,
17284,,,,
17307,,,,
17319,,,,
17349,,,,
17379,,,,
17387,,,,
17424,,,,
17515,,,,
17663,,,,
17830,,,,
17834,,,,
17848,,,,
17852,,,,
17858,,,,
17869,,,,
17917,,,,
17981,,,,
18041,,,,
18064,,,,
18065,,,,
18073,,,,
18101,,,,
18126,,,,
18154,,,,
18242,,,,
18302,,,,
18374,,,,
18464,,,,
18521,,,,
18602,,,,
18608,,,,
18824,,,,
18948,,,,
18964,,,,
18979,,,,
19011,,,,
19036,,,,
19048,,,,
19205,,,,
19242,,,,
19279,,,,
19423,,,,
19505,,,,
19568,,,,
19597,,,,
19687,,,,
19752,,,,
20045,,,,
20066,,,,
20068,,,,
20116,,,,
20128,,,,
20149,,,,
20300,,,,
20401,,,,
20577,,,,
20673,,,,
20753,,,,
20853,,,,
20928,,,,
21220,,,,
21312,,,,
21403,,,,
21672,,,,
22488,,,,
22841,,,,
23013,,,,
23018,,,,
23286,,,,
23376,,,,
23384,,,,
23743,,,,
23748,,,,
23910,,,,
23916,,,,
23922,,,,
23928,,,,
24272,,,,
24465,,,,
24468,,,,
24638,,,,
25099,,,,
1181,1.39243,1400,1618.80745,4.47200
1210,1.14036,300,507.49366,3.40183
1473,5.98638,2200,2457.67942,15.97715
1573,0.00000,0,10.87995,0.00000
1745,0.00000,0,84.71960,0.00000
1829,5.26594,2350,2627.88340,15.53912
2005,0.00000,0,21.12430,0.00000
2102,0.00000,0,65.66427,0.00000
2181,2.82272,1300,1634.09853,7.95899
2275,14.94661,-1050,-1050.00000,-153.59281
2294,3.19594,2100,2266.40474,8.08658
2355,0.00000,0,36.54563,0.00000
2398,1.30986,700,893.68563,2.94986
2571,0.00000,0,-34.78768,0.00000
2655,4.39371,3300,3478.07025,15.41809
2801,0.00000,0,234.34310,0.00000
2845,3.37933,1500,1557.52751,7.69523
2898,2.06984,1550,2014.43487,5.62440
2916,5.97005,2850,2911.84210,10.93107
2937,1.24839,1150,1213.80505,2.77368
2984,0.00000,0,38.51681,0.00000
2986,1.91853,1050,1444.23678,5.46034
3085,3.98531,1800,2129.32287,11.27665
3113,0.00000,0,103.79775,0.00000
3161,2.14732,800,900.11022,4.64170
3348,0.86669,450,443.36549,2.59209
3359,5.38712,3500,3697.93645,10.85969
3430,1.56785,1150,1505.72551,4.18299
3530,1.67196,850,1102.65460,2.42845
3657,3.16614,1500,1572.15100,7.11424
3797,1.93165,650,1236.28122,4.43593
3805,0.00000,0,-11.29340,0.00000
3815,6.69544,2550,2961.22009,12.76219
4070,0.85671,1100,1100.00000,2.54249
4248,0.00000,0,26.98112,0.00000
4467,0.00000,0,48.17550,0.00000
4507,0.00000,0,92.93135,0.00000
4517,0.00000,0,-3.96767,0.00000
4529,0.00000,0,53.14323,0.00000
4536,0.00000,0,67.18749,0.00000
4637,0.74275,650,627.34456,1.85001
4651,2.14504,1050,1311.97532,3.83754
4733,2.64420,1350,1703.99651,6.21010
4910,0.00000,0,75.51912,0.00000
4970,0.00000,0,17.28095,0.00000
5191,4.62533,2500,2702.58237,11.99716
5236,0.22663,150,309.52996,0.57177
5349,0.00000,0,294.98267,0.00000
5633,2.96115,1450,1715.83850,8.89751
5652,2.18203,1350,1341.08764,5.70662
5657,7.47059,2250,2381.84727,15.27946
5684,1.85142,800,1081.18158,5.37041
5692,8.05006,2550,2995.78669,15.68641
5717,2.14905,1450,1815.64745,6.08307
5870,0.00000,0,-40.36003,0.00000
5885,0.00000,0,63.51226,0.00000
5977,3.42096,2300,2121.39484,8.73608
6073,3.15691,2800,2944.36915,9.55005
6089,2.59861,2100,2273.68767,7.50133
6110,0.00000,0,-49.25340,0.00000
6232,0.00000,0,-20.84946,0.00000
6246,1.99036,2450,2666.59626,6.27671
6253,4.61598,3050,3214.11984,11.32222
6293,0.00000,0,5.24983,0.00000
6325,1.65075,1000,1084.46460,4.23603
6377,0.00000,0,-40.89380,0.00000
6465,0.39828,650,697.29575,1.13159
6630,0.00000,1350,1111.17658,0.00000
6706,12.23619,3700,3868.25525,28.47623
6911,1.34401,1150,1197.72448,3.53485
6913,3.67810,1750,2150.80627,9.70519
7279,0.00000,0,67.26006,0.00000
7443,6.23535,3500,4097.30669,14.41337
7611,0.00000,0,480.18166,0.00000
7632,1.34401,1150,582.84896,3.53485
7802,1.66897,950,1166.19633,3.64197
7818,4.19536,2050,2272.37311,11.84040
8358,4.48168,3150,3024.13465,12.64889
8442,3.29918,2000,2363.27830,7.46176
8521,5.42498,3300,3715.33296,16.09769
8526,1.01709,400,846.37821,1.80427
8528,0.00000,0,61.14288,0.00000
9078,6.08220,3550,4123.85868,16.96824
9159,2.30699,1500,1729.98245,6.41922
9534,6.18108,2900,3147.87140,20.18214
9619,0.00000,0,339.72015,0.00000
9709,4.21072,1650,1917.59342,9.86184
11229,0.00000,0,-81.52987,0.00000
11867,0.00000,0,107.36481,0.00000
12500,3.09455,1650,1910.93553,8.60380
13870,0.00000,0,-107.16691,0.00000
14238,0.00000,0,59.30356,0.00000
14239,1.24423,750,892.82390,3.13274
14321,4.24410,2600,2780.73937,13.12691
14504,2.32466,1000,1326.20673,5.30701
14696,4.91196,3050,3272.84710,13.78615
14699,2.81522,1650,2100.92439,6.69157
14874,0.00000,0,5.22871,0.00000
14947,0.89429,900,1053.78316,2.36933
14950,0.52033,100,183.71147,1.84798
14968,3.89023,2250,2493.37253,12.17425
15072,5.73168,3050,3045.77854,16.81899
15233,1.55580,750,759.72209,3.99690
15272,1.80830,800,1115.50820,4.46349
15407,4.50273,2050,2519.08906,10.97874
15609,2.19487,1150,1403.23206,6.46971
15674,0.00000,0,0.00000,0.00000
15717,0.00000,0,32.89798,0.00000
15721,2.78596,1300,1650.32892,7.61777
15803,0.00000,0,-95.78146,0.00000
15808,3.32035,2150,2327.76469,8.90847
15992,2.46332,1150,1348.85725,6.15325
16124,0.00000,0,11.46861,0.00000
16156,0.00000,0,16.17539,0.00000
16231,1.71009,1100,1145.67846,3.73375
16248,2.58475,1600,1917.31926,8.39555
16657,4.27952,1500,1726.05757,14.16752
16761,,,,
16786,1.98407,1250,1287.38984,5.25146
16806,0.00000,0,370.28031,0.00000
16855,6.21207,2600,2800.40030,16.44517
16963,0.00000,0,344.55491,0.00000
17039,3.93693,1700,1993.07258,9.57665
17052,4.87473,2250,2677.49926,13.48533
17132,5.86893,1650,1919.39104,11.45243
17149,4.35751,2500,2591.07132,13.43239
17163,0.00000,0,-12.50770,0.00000
17196,0.00000,0,140.12553,0.00000
17227,7.38907,4250,4460.30992,19.10785
17233,4.48753,1900,2183.09879,9.44441
17307,0.00000,0,33.79694,0.00000
17379,0.74825,250,431.60054,1.15201
17387,1.67851,1050,1304.96424,4.12013
17515,0.00000,0,68.46226,0.00000
17830,2.80509,1150,1192.70070,6.09585
17834,2.00673,1950,2036.54316,6.27395
17852,3.75526,1650,1848.96902,11.80415
17858,0.00000,0,76.96832,0.00000
17869,3.13700,1000,979.77588,5.18936
17981,3.33900,1700,2026.30476,9.21610
18064,1.89293,1500,1411.49864,5.17117
18065,0.00000,0,96.17801,0.00000
18101,3.49345,1950,2127.22681,11.46121
18126,6.17649,2000,2152.50013,19.71328
18154,3.43985,1900,2153.40929,10.43092
18242,0.00000,0,108.23610,0.00000
18302,0.00000,0,181.26582,0.00000
18374,4.75158,1800,2134.26748,11.57220
18608,2.66222,1300,1624.55729,8.63516
18824,0.00000,0,19.46742,0.00000
18948,3.19127,1550,1866.90546,8.58603
18964,0.00000,0,73.99466,0.00000
18979,1.38093,700,755.05859,2.71604
19036,0.00000,0,13.15761,0.00000
19048,0.00000,0,246.37403,0.00000
19242,4.96941,2500,2755.54063,14.62068
19279,4.67760,1250,1569.45704,12.92093
19423,1.59004,1200,1246.79182,4.90951
19752,4.67803,3500,3714.59320,11.75859
20045,2.93099,1600,991.74400,7.33030
20066,2.50970,1200,1421.77015,6.95089
20116,2.84027,1800,1913.55858,8.19476
20128,1.51641,1750,1780.56617,4.49620
20300,6.30773,4150,4507.73255,16.17748
20401,4.27229,4200,4396.77386,11.67616
20577,8.20623,5250,5731.92632,21.53086
20673,4.08678,1450,1532.46411,12.50832
20753,7.58695,2500,2681.06531,24.45653
20853,6.48641,2400,2709.72677,14.79226
20928,3.98016,2750,2595.50666,7.12024
21312,0.00000,0,0.00000,0.00000
21403,5.32763,1800,2214.88871,12.73494
21672,4.67634,2550,2969.89824,13.40349
22841,3.11701,2500,2654.18281,7.10969
23018,3.05917,1850,2056.45302,7.14327
23286,0.00000,0,515.41485,0.00000
23743,1.64366,950,1039.30489,3.81665
23748,3.26015,2100,2145.43365,6.97179
23910,0.00000,0,-15.73639,0.00000
23922,5.76400,3750,3615.89480,16.73774
23928,4.02548,2050,2365.25107,10.42911
24272,4.35617,3750,4011.26080,13.47392
24638,1.68617,1150,1171.05546,4.82347
25099,3.87099,1800,2085.01931,6.20579
6968,1.39243,1400,1618.80745,4.47200
6702,1.14036,300,507.49366,3.40183
19931,5.98638,2200,2457.67942,15.97715
6340,0.00000,0,10.87995,0.00000
6427,0.00000,0,84.71960,0.00000
19388,5.26594,2350,2627.88340,15.53912
18756,0.00000,0,21.12430,0.00000
5254,0.00000,0,65.66427,0.00000
19106,2.82272,1300,1634.09853,7.95899
18654,14.94661,-1050,-1050.00000,-153.59281
4893,3.19594,2100,2266.40474,8.08658
18030,0.00000,0,36.54563,0.00000
18028,1.30986,700,893.68563,2.94986
17667,0.00000,0,-34.78768,0.00000
3807,4.39371,3300,3478.07025,15.41809
3533,0.00000,0,234.34310,0.00000
17299,3.37933,1500,1557.52751,7.69523
18018,2.06984,1550,2014.43487,5.62440
17747,5.97005,2850,2911.84210,10.93107
5054,1.24839,1150,1213.80505,2.77368
5689,0.00000,0,38.51681,0.00000
18469,1.91853,1050,1444.23678,5.46034
5694,3.98531,1800,2129.32287,11.27665
19281,0.00000,0,103.79775,0.00000
6502,2.14732,800,900.11022,4.64170
5778,0.86669,450,443.36549,2.59209
18373,5.38712,3500,3697.93645,10.85969
5048,1.56785,1150,1505.72551,4.18299
18281,1.67196,850,1102.65460,2.42845
4509,3.16614,1500,1572.15100,7.11424
17374,1.93165,650,1236.28122,4.43593
16745,0.00000,0,-11.29340,0.00000
3786,6.69544,2550,2961.22009,12.76219
16659,0.85671,1100,1100.00000,2.54249
17200,0.00000,0,26.98112,0.00000
4149,0.00000,0,48.17550,0.00000
18013,0.00000,0,92.93135,0.00000
4156,0.00000,0,-3.96767,0.00000
17114,0.00000,0,53.14323,0.00000
16574,0.00000,0,67.18749,0.00000
17119,0.74275,650,627.34456,1.85001
3262,2.14504,1050,1311.97532,3.83754
16310,2.64420,1350,1703.99651,6.21010
2718,0.00000,0,75.51912,0.00000
3073,0.00000,0,17.28095,0.00000
2536,4.62533,2500,2702.58237,11.99716
2085,0.22663,150,309.52996,0.57177
15042,0.00000,0,294.98267,0.00000
2440,2.96115,1450,1715.83850,8.89751
15942,2.18203,1350,1341.08764,5.70662
16387,7.47059,2250,2381.84727,15.27946
14946,1.85142,800,1081.18158,5.37041
14771,8.05006,2550,2995.78669,15.68641
14767,2.14905,1450,1815.64745,6.08307
14764,0.00000,0,-40.36003,0.00000
460,0.00000,0,63.51226,0.00000
911,3.42096,2300,2121.39484,8.73608
14414,3.15691,2800,2944.36915,9.55005
646,2.59861,2100,2273.68767,7.50133
1012,0.00000,0,-49.25340,0.00000
14782,0.00000,0,-20.84946,0.00000
14238,1.99036,2450,2666.59626,6.27671
1365,4.61598,3050,3214.11984,11.32222
1816,0.00000,0,5.24983,0.00000
15320,1.65075,1000,1084.46460,4.23603
1733,0.00000,0,-40.89380,0.00000
2271,0.39828,650,697.29575,1.13159
15862,0.00000,1350,1111.17658,0.00000
2815,12.23619,3700,3868.25525,28.47623
2368,1.34401,1150,1197.72448,3.53485
2185,3.67810,1750,2150.80627,9.70519
1649,0.00000,0,67.26006,0.00000
1920,6.23535,3500,4097.30669,14.41337
14521,0.00000,0,480.18166,0.00000
14341,1.34401,1150,582.84896,3.53485
1195,1.66897,950,1166.19633,3.64197
1385,4.19536,2050,2272.37311,11.84040
846,4.48168,3150,3024.13465,12.64889
1118,3.29918,2000,2363.27830,7.46176
14886,5.42498,3300,3715.33296,16.09769
2110,1.01709,400,846.37821,1.80427
1841,0.00000,0,61.14288,0.00000
15254,6.08220,3550,4123.85868,16.96824
15702,2.30699,1500,1729.98245,6.41922
16335,6.18108,2900,3147.87140,20.18214
3193,0.00000,0,339.72015,0.00000
16148,4.21072,1650,1917.59342,9.86184
16235,0.00000,0,-81.52987,0.00000
2467,0.00000,0,107.36481,0.00000
15605,3.09455,1650,1910.93553,8.60380
2015,0.00000,0,-107.16691,0.00000
2642,0.00000,0,59.30356,0.00000
16054,1.24423,750,892.82390,3.13274
16410,4.24410,2600,2780.73937,13.12691
16138,2.32466,1000,1326.20673,5.30701
16136,4.91196,3050,3272.84710,13.78615
3539,2.81522,1650,2100.92439,6.69157
3270,0.00000,0,5.22871,0.00000
16954,0.89429,900,1053.78316,2.36933
3722,0.52033,100,183.71147,1.84798
4355,3.89023,2250,2493.37253,12.17425
4176,5.73168,3050,3045.77854,16.81899
17409,1.55580,750,759.72209,3.99690
16865,1.80830,800,1115.50820,4.46349
17048,4.50273,2050,2519.08906,10.97874
3553,2.19487,1150,1403.23206,6.46971
3645,0.00000,0,0.00000,0.00000
17231,0.00000,0,32.89798,0.00000
17954,2.78596,1300,1650.32892,7.61777
18044,0.00000,0,-95.78146,0.00000
17770,3.32035,2150,2327.76469,8.90847
18126,2.46332,1150,1348.85725,6.15325
5439,2.46332,1150,1348.85725,6.15325
18672,0.00000,0,11.46861,0.00000
5356,0.00000,0,16.17539,0.00000
18941,1.71009,1100,1145.67846,3.73375
19123,2.58475,1600,1917.31926,8.39555
19577,4.27952,1500,1726.05757,14.16752
5719,,,,
4998,1.98407,1250,1287.38984,5.25146
18410,0.00000,0,370.28031,0.00000
18411,6.21207,2600,2800.40030,16.44517
18053,0.00000,0,344.55491,0.00000
4643,3.93693,1700,1993.07258,9.57665
4909,4.87473,2250,2677.49926,13.48533
17418,5.86893,1650,1919.39104,11.45243
17326,4.35751,2500,2591.07132,13.43239
3287,0.00000,0,-12.50770,0.00000
17331,0.00000,0,140.12553,0.00000
3475,7.38907,4250,4460.30992,19.10785
17155,4.48753,1900,2183.09879,9.44441
4374,0.00000,0,33.79694,0.00000
4558,0.74825,250,431.60054,1.15201
4112,1.67851,1050,1304.96424,4.12013
17248,0.00000,0,68.46226,0.00000
16799,2.80509,1150,1192.70070,6.09585
17163,2.00673,1950,2036.54316,6.27395
3304,3.75526,1650,1848.96902,11.80415
16263,0.00000,0,76.96832,0.00000
16442,3.13700,1000,979.77588,5.18936
2759,3.33900,1700,2026.30476,9.21610
15898,1.89293,1500,1411.49864,5.17117
15447,0.00000,0,96.17801,0.00000
15984,3.49345,1950,2127.22681,11.46121
2845,6.17649,2000,2152.50013,19.71328
16161,3.43985,1900,2153.40929,10.43092
16520,0.00000,0,108.23610,0.00000
15886,0.00000,0,181.26582,0.00000
2570,4.75158,1800,2134.26748,11.57220
14896,2.66222,1300,1624.55729,8.63516
2131,0.00000,0,19.46742,0.00000
2403,3.19127,1550,1866.90546,8.58603
19970,0.00000,0,73.99466,0.00000
18707,1.38093,700,755.05859,2.71604
19155,0.00000,0,13.15761,0.00000
19338,0.00000,0,246.37403,0.00000
6646,4.96941,2500,2755.54063,14.62068
6462,4.67760,1250,1569.45704,12.92093
19691,1.59004,1200,1246.79182,4.90951
6010,4.67803,3500,3714.59320,11.75859
5649,2.93099,1600,991.74400,7.33030
18343,2.50970,1200,1421.77015,6.95089
18883,2.84027,1800,1913.55858,8.19476
17802,1.51641,1750,1780.56617,4.49620
18158,6.30773,4150,4507.73255,16.17748
17258,4.27229,4200,4396.77386,11.67616
17077,8.20623,5250,5731.92632,21.53086
4475,4.08678,1450,1532.46411,12.50832
4837,7.58695,2500,2681.06531,24.45653
18243,6.48641,2400,2709.72677,14.79226
4652,3.98016,2750,2595.50666,7.12024
18509,0.00000,0,0.00000,0.00000
5643,5.32763,1800,2214.88871,12.73494
5014,4.67634,2550,2969.89824,13.40349
18787,3.11701,2500,2654.18281,7.10969
6095,3.05917,1850,2056.45302,7.14327
6188,0.00000,0,515.41485,0.00000
19953,1.64366,950,1039.30489,3.81665
6362,1.24839,1150,1213.80505,2.77368
6358,0.00000,0,38.51681,0.00000
5909,1.91853,1050,1444.23678,5.46034
5728,3.98531,1800,2129.32287,11.27665
18775,0.00000,0,103.79775,0.00000
5544,2.14732,800,900.11022,4.64170
19405,0.86669,450,443.36549,2.59209
6442,5.38712,3500,3697.93645,10.85969
19760,1.56785,1150,1505.72551,4.18299
6618,1.67196,850,1102.65460,2.42845
7161,3.16614,1500,1572.15100,7.11424
6893,1.93165,650,1236.28122,4.43593
6986,0.00000,0,-11.29340,0.00000
20933,6.69544,2550,2961.22009,12.76219
8247,0.85671,1100,1100.00000,2.54249
7710,0.00000,0,26.98112,0.00000
20579,0.00000,0,48.17550,0.00000
20128,0.00000,0,92.93135,0.00000
7262,0.00000,0,-3.96767,0.00000
20403,0.00000,0,53.14323,0.00000
20406,0.00000,0,67.18749,0.00000
7714,0.74275,650,627.34456,1.85001
21397,2.14504,1050,1311.97532,3.83754
21394,2.64420,1350,1703.99651,6.21010
7981,0.00000,0,75.51912,0.00000
21748,0.00000,0,17.28095,0.00000
8612,4.62533,2500,2702.58237,11.99716
8433,0.22663,150,309.52996,0.57177
22296,0.00000,0,294.98267,0.00000
9425,2.96115,1450,1715.83850,8.89751
9608,2.18203,1350,1341.08764,5.70662
9339,7.47059,2250,2381.84727,15.27946
9250,1.85142,800,1081.18158,5.37041
22028,8.05006,2550,2995.78669,15.68641
22031,2.14905,1450,1815.64745,6.08307
8625,0.00000,0,-40.36003,0.00000
8084,0.00000,0,63.51226,0.00000
7813,1.24839,1150,1213.80505,2.77368
21670,0.00000,0,38.51681,0.00000
7631,1.91853,1050,1444.23678,5.46034
7270,3.98531,1800,2129.32287,11.27665
20231,0.00000,0,103.79775,0.00000
7274,2.14732,800,900.11022,4.64170
6919,0.86669,450,443.36549,2.59209
20598,5.38712,3500,3697.93645,10.85969
21136,1.56785,1150,1505.72551,4.18299
8180,1.67196,850,1102.65460,2.42845
20599,3.16614,1500,1572.15100,7.11424
6836,1.93165,650,1236.28122,4.43593
9805,0.00000,0,-11.29340,0.00000
23300,6.69544,2550,2961.22009,12.76219
22759,0.85671,1100,1100.00000,2.54249
9260,0.00000,0,26.98112,0.00000
9078,0.00000,0,48.17550,0.00000
9076,0.00000,0,92.93135,0.00000
9618,0.00000,0,-3.96767,0.00000
23204,0.00000,0,53.14323,0.00000
23202,0.00000,0,67.18749,0.00000
23290,0.74275,650,627.34456,1.85001
10422,2.14504,1050,1311.97532,3.83754
10156,2.64420,1350,1703.99651,6.21010
10338,0.00000,0,75.51912,0.00000
10966,0.00000,0,17.28095,0.00000
24738,4.62533,2500,2702.58237,11.99716
11332,0.22663,150,309.52996,0.57177
10791,0.00000,0,294.98267,0.00000
24652,2.96115,1450,1715.83850,8.89751
11868,2.18203,1350,1341.08764,5.70662
11501,7.47059,2250,2381.84727,15.27946
10329,1.85142,800,1081.18158,5.37041
11134,8.05006,2550,2995.78669,15.68641
24817,2.14905,1450,1815.64745,6.08307
11313,0.00000,0,-40.36003,0.00000
10681,0.00000,0,63.51226,0.00000
23735,0.00000,0,36.54563,0.00000
9603,1.30986,700,893.68563,2.94986
7702,0.00000,0,-34.78768,0.00000
20476,4.39371,3300,3478.07025,15.41809
7153,0.00000,0,234.34310,0.00000
45,3.37933,1500,1557.52751,7.69523
169,2.06984,1550,2014.43487,5.62440
294,5.97005,2850,2911.84210,10.93107
419,1.24839,1150,1213.80505,2.77368
543,0.00000,0,38.51681,0.00000
668,1.91853,1050,1444.23678,5.46034
793,3.98531,1800,2129.32287,11.27665
917,0.00000,0,103.79775,0.00000
1042,2.14732,800,900.11022,4.64170
1166,0.86669,450,443.36549,2.59209
1291,5.38712,3500,3697.93645,10.85969
1416,1.56785,1150,1505.72551,4.18299
1540,1.67196,850,1102.65460,2.42845
1665,3.16614,1500,1572.15100,7.11424
1790,1.93165,650,1236.28122,4.43593
1914,0.00000,0,-11.29340,0.00000
2039,6.69544,2550,2961.22009,12.76219
2164,0.85671,1100,1100.00000,2.54249
2288,0.00000,0,26.98112,0.00000
2413,0.00000,0,48.17550,0.00000
2538,0.00000,0,92.93135,0.00000
2662,0.00000,0,-3.96767,0.00000
2787,0.00000,0,53.14323,0.00000
2912,0.00000,0,67.18749,0.00000
3036,0.74275,650,627.34456,1.85001
3161,2.14504,1050,1311.97532,3.83754
3286,2.64420,1350,1703.99651,6.21010
3410,0.00000,0,75.51912,0.00000
3535,0.00000,0,17.28095,0.00000
3659,4.62533,2500,2702.58237,11.99716
3784,0.22663,150,309.52996,0.57177
3909,0.00000,0,294.98267,0.00000
4033,2.96115,1450,1715.83850,8.89751
4158,2.18203,1350,1341.08764,5.70662
4283,7.47059,2250,2381.84727,15.27946
4407,1.85142,800,1081.18158,5.37041
4532,8.05006,2550,2995.78669,15.68641
4657,2.14905,1450,1815.64745,6.08307
4781,0.00000,0,-40.36003,0.00000
4906,0.00000,0,63.51226,0.00000
5031,3.42096,2300,2121.39484,8.73608
5155,0.74275,650,627.34456,1.85001
5280,2.14504,1050,1311.97532,3.83754
5405,2.64420,1350,1703.99651,6.21010
5529,0.00000,0,75.51912,0.00000
5654,0.00000,0,17.28095,0.00000
5779,4.62533,2500,2702.58237,11.99716
5903,0.22663,150,309.52996,0.57177
6028,0.00000,0,294.98267,0.00000
6152,2.96115,1450,1715.83850,8.89751
6277,2.18203,1350,1341.08764,5.70662
6402,7.47059,2250,2381.84727,15.27946
6526,1.85142,800,1081.18158,5.37041
6651,8.05006,2550,2995.78669,15.68641
6776,2.14905,1450,1815.64745,6.08307
6900,4.62533,2500,2702.58237,11.99716
7025,0.22663,150,309.52996,0.57177
7150,0.00000,0,294.98267,0.00000
7274,2.96115,1450,1715.83850,8.89751
7399,2.14504,1050,1311.97532,3.83754
